Rainfall erosivity calculation • hyetor
…
during a time period of 15 mins a cumulative value of precipitation of at least 6.4 mm is recorded.

Example

This is an example that uses the internal data set in order to compute the corresponding rainfall erosivity values.

library(hyetor)
library(tibble)
library(dplyr)
library(lubridate)

# view data
prec5min
#> # A tibble: 48,209 x 2
#>    date                 prec
#>    <dttm>              <dbl>
#>  1 1954-12-14 07:40:00     0
#>  2 1954-12-14 07:45:00     0
#>  3 1954-12-14 07:50:00     0
#>  4 1954-12-14 07:55:00     0
#>  5 1954-12-14 08:00:00     0
#>  6 1954-12-14 08:05:00     0
#>  7 1954-12-14 08:10:00     0
#>  8 1954-12-14 08:15:00     0
#>  9 1954-12-14 08:20:00     0
#> 10 1954-12-14 08:25:00     0
#> # ... with 48,199 more rows
The following code can be used to:

Fill the time-series.

Compute the rainfall erosivity values per storm.

Filter the above values using cumulative precipitation height and maximum 15 minutes intensity rules.

ei_values <- prec5min %>%
  hyet_fill(time_step = 5, ts_unit = "mins") %>%
  hyet_erosivity(time_step = 5) %>%
  filter(cum_prec > 12.7 | max_i15 > 4 * 6.4)

ei_values
#> # A tibble: 29 x 9
#>    begin               end                 duration cum_prec max_i15
#>    <dttm>              <dttm>              <time>      <dbl>   <dbl>
#>  1 1955-04-14 14:15:00 1955-04-14 23:40:00 570 mins     37.6    24.2
#>  2 1955-04-15 15:55:00 1955-04-16 06:30:00 880 mins     23.0    10.9
#>  3 1955-05-11 13:30:00 1955-05-11 19:00:00 335 mins     27.1    25.6
#>  4 1955-07-15 14:50:00 1955-07-15 15:45:00 " 60 mi…     18.8    52.3
#>  5 1955-08-30 14:35:00 1955-08-30 16:30:00 120 mins     22.4    30.7
#>  6 1955-09-02 12:05:00 1955-09-02 17:30:00 330 mins     24.3    38.4
#>  7 1955-09-04 13:10:00 1955-09-04 15:25:00 140 mins     19.4    17.6
#>  8 1955-09-28 18:05:00 1955-09-28 19:30:00 " 90 mi…     35.2    59.9
#>  9 1955-10-01 04:20:00 1955-10-01 19:50:00 935 mins     27.9    17.4
#> 10 1955-10-07 14:50:00 1955-10-08 06:10:00 925 mins     77.1    26.1
#> # ... with 19 more rows, and 4 more variables: max_i30 <dbl>,
#> #   total_energy <dbl>, erosivity <dbl>, eros_density <dbl>
…
