…
Example

This is a minimal example which shows how to use the package’s functions to analyze the internal data set.

Load libraries and view the first rows of the internal precipitation time-series:

library(hyetor)
library(tibble)
library(dplyr)
library(lubridate)
library(ggplot2)

prec5min
#> # A tibble: 48,209 x 2
#>    date                 prec
#>    <dttm>              <dbl>
#>  1 1954-12-14 07:40:00     0
#>  2 1954-12-14 07:45:00     0
#>  3 1954-12-14 07:50:00     0
#>  4 1954-12-14 07:55:00     0
#>  5 1954-12-14 08:00:00     0
#>  6 1954-12-14 08:05:00     0
#>  7 1954-12-14 08:10:00     0
#>  8 1954-12-14 08:15:00     0
#>  9 1954-12-14 08:20:00     0
#> 10 1954-12-14 08:25:00     0
#> # … with 48,199 more rows
…
Analysis

Split to independent rainstorms and calculate erosivity values with cumulative precipitation greater than 12,7 mm:

prec5min %>%
  hyet_split(time_step = 5, ts_unit = "mins") %>%
  hyet_erosivity(time_step = 5) %>%
  ungroup() %>%
  filter(cum_prec > 12.7) %>%
  select(begin, duration, cum_prec, erosivity)
#> # A tibble: 31 x 4
#>    begin               duration  cum_prec erosivity
#>    <dttm>              <drtn>       <dbl>     <dbl>
#>  1 1955-03-03 10:10:00  805 mins     13.4      8.61
#>  2 1955-04-14 14:10:00  625 mins     38.7    154.  
#>  3 1955-04-15 11:20:00 1225 mins     24.1     35.0 
#>  4 1955-05-11 13:30:00  375 mins     28      138.  
#>  5 1955-07-15 14:50:00  125 mins     19.6    175.  
#>  6 1955-08-30 14:30:00  150 mins     23.9    131.  
#>  7 1955-09-02 12:05:00  355 mins     25.3    136.  
#>  8 1955-09-04 13:10:00  170 mins     20.4     61.7 
#>  9 1955-09-28 18:05:00  100 mins     35.7    393.  
#> 10 1955-10-01 11:40:00  520 mins     19.7     39.7 
#> # … with 21 more rows
…
